{
  "name" : "John Awesome",
  "bodyClass": "home",
  "title" : "Leads",
  "bdubs-text1": "Big lists of job titles aren't the most helpful.",
  "bdubs-text2": "Quick summaries of each job lead helps you make a more informed decision.",
  "bdubs-journey-pts": 25,
  "nav-items" : [
    {
      "class": "active",
      "icon": "fa-dashboard",
      "title": "Dashboard"
    }
  ]
}