{
  "bodyId": "login-page-full",
  "signButtonText" : "Create Account",
  "logosource" : "../../img/bw_logo_login.png",
  "background-image": "https://app.betterweekdays.com/sites/all/themes/custom/bwv2/img/login-img.jpg",
  "college": "Better Weekdays University"
}