{
  "name" : "john@email.com",
  "bodyClass": "home",
  "page-specific-css": [
    {
      "path": "libs/select2.css"
    }
  ],
  "is_js" : true,
  "form-footer-js": true,
  "title" : "Profile",
  "cs-nav-items" : [
    {
      "class": "",
      "icon": "fa-dashboard",
      "title": "Dashboard"
    },
    {
      "class": "",
      "icon": "fa-list",
      "title": "Reports"
    },
    {
      "class": "",
      "icon": "fa-heartbeat",
      "title": "Activity"
    },
    {
      "class": "",
      "icon": "fa-briefcase",
      "title": "Jobs"
    },
    {
      "class": "",
      "icon": "fa-book",
      "title": "Contacts"
    },
    {
      "class": "",
      "icon": "fa-exchange",
      "title": "Rules"
    },
    {
      "class": "",
      "icon": "fa-check-circle-o",
      "title": "Verification"
    },
    {
      "class": "",
      "icon": "fa-info-circle",
      "title": "Help & Resources"
    },
    {
      "class": "active",
      "icon": "fa-user",
      "title": "Profile"
    }
  ]
}