{
  "page-specific-css": [
    {
      "path": "libs/dataTables.fixedHeader.css"
    },
    {
      "path": "libs/dataTables.tableTools.css"
    },
    {
      "path": "libs/daterangepicker.css"
    },
    {
      "path": "libs/select2.css"
    }
  ],
  "table-footer-js": true,
  "form-footer-js": true,
  "name" : "Allison",
  "bodyClass": "home",
  "title" : "Better Weekdays: Employer Dashboard",
  "bdubs-text1": "My user research has shown that personal encouragement is most important to job seekers.",
  "employer-nav-items": [
    {
      "class": "",
      "icon": "fa-dashboard",
      "title": "Dashboard"
    },
    {
      "class": "",
      "icon": "fa-building",
      "title": "Company"
    },
    {
      "class": "active",
      "icon": "fa-briefcase",
      "title": "Jobs"
    }
  ]
}

