{
  "name" : "john@email.com",
  "bodyClass": "home",
  "title" : "Self-Assessment",
  "nav-items" : [
    {
      "class": "",
      "title": "Dashboard"
    },
    {
      "class": "",
      "title": "Favorites"
    },
    {
      "class": "",
      "title": "Jobs"
    },
    {
      "class": "",
      "title": "Companies"
    },
    {
      "class": "active",
      "title": "Assessment"
    }
  ],
  "overall-count": [
    {
      "icon": "fa-money",
      "bg-color": "green-bg",
      "headline": "Total",
      "start": 0,
      "finish": 50,
      "value": "50",
      "num-label": "matches"
    }
  ],

  "completeness": {
    "title": "Complete Your Profile",
    "link": "Add your job preferences"
  }
}
