{
  "name" : "john@email.com",
  "bodyClass": "home",
  "bodyId": "jobs",
  "title" : "Jobs",
  "bdubs-text1": "If you ever have questions, always feel free to reach out. We're here for you!",
  "nav-items" : [
    {
      "class": "",
      "title": "Dashboard"
    },
    {
      "class": "",
      "title": "Favorites"
    },
    {
      "class": "",
      "title": "Jobs"
    },
    {
      "class": "",
      "title": "Companies"
    },
    {
      "class": "",
      "title": "Assessment"
    },
    {
      "class": "",
      "title": "Activity"
    },
    {
      "class": "",
      "title": "Profile"
    },
    {
      "class": "active",
      "title": "Advice"
    }
  ]
}
