{
  "name" : "john@email.com",
  "bodyClass": "home",
  "title" : "Dashboard",
  "strong-warning": "Resume Needed!",
  "warning": "Please upload a resume to see Matches!",
  "jobseeker": "TRUE",
  "checkbox-js": true,
  "bdubs-text1": "Time to get it! What are you going to today to make it great?",
  "nav-items" : [
    {
      "class": "active",
      "title": "Dashboard"
    }
  ],
  "overall-count": [
    {
      "icon": "fa-money",
      "bg-color": "green-bg",
      "headline": "Job Matches",
      "start": 0,
      "finish": 21,
      "value": "21",
      "num-label": "",
      "link": "/patterns/04-pages-02-job-seeker-02-job-seeker-matches/04-pages-02-job-seeker-02-job-seeker-matches.html"
    }
  ],
  "list-group" : [
    {
      "date": "Today",
      "url": "http://blog.betterweekdays.com/blog/students/329914/critical-mistakes-in-career-planning",
      "title": "Critical Mistakes in Career Planning",
      "summary": "When utilizing career planning to figure out where you need to go next in life, here are five commonly made mistakes that could cause you big problems down the road.",
      "source": "Better Weekdays"
    },
    {
      "date": "Yesterday",
      "url": "http://blog.betterweekdays.com/blog/students/329062/a-crooked-career-path",
      "title": "How to Find the Right Career Path",
      "summary": "Whatever you think you have planned for your career path can and will change in the future. Planning out that perfect career when you haven't even set foot in the real world can be frustrating. Instead, let yourself be guided to the right career along the way. Here are a few tips and tricks that will continuously help you stay focused in your career and keep opportunities open.",
      "source": "Better Weekdays"
    },
    {
      "date": "2/14/15",
      "url": "https://www.iseek.org/careers/studentcareers.html",
      "title": "Tips for Getting a Job After College",
      "summary": "Most students go to college to get a degree and to gain the skills employers want. Getting good grades is not enough to impress most employers. Students that follow the strategies listed below will be better prepared to promote themselves to employers.",
      "source": "iSeek Careers"
    }
  ],
  "faq": [
    {
      "question": "How can I get help on resume?",
      "answer": "Contact Career Services and we can get you squared away!"
    },
    {
      "question": "What is the average salary for my job area?",
      "answer": "Great question! Let Career Services know what type of job you're interested in and we can pinpoint those numbers."
    },
    {
      "question": "What are tips for interviewing?",
      "answer": "Lorem Ipsum"
    }
  ],
  "completeness": {
    "title": "Complete Your Profile",
    "link": "Add your job preferences"
  },
  "completeness2": {
    "title": "Understand the Landscape",
    "link": "Read article on negotiating salary"
  },
  "blank-state": {
    "class": "",
    "title": "Choose Your Job Journey",
    "message1": "Quickly view jobs without a resume? Leads",
    "message2": "Matches: Be matched to careers with a resume, location, and experience.",
    "message3": "Assessment: Get scientific answers to your personality and career goals."
  }
}
