{
  "name" : "john@email.com",
  "bodyClass": "home",
  "bodyId": "jobs",
  "title" : "Jobs",
  "bdubs-text1": "The playlist job view tells you all of the important stuff, super easily. Pretty cool, eh?",
  "is_js": true,
  "select-js": true,
  "nav-items" : [
    {
      "class": "",
      "title": "Dashboard"
    },
    {
      "class": "",
      "title": "Favorites"
    },
    {
      "class": "active",
      "title": "Jobs"
    }
  ]
}